<?xml version="1.0" encoding="utf-8"?>
<!-- Generator: Adobe Illustrator 22.0.0, SVG Export Plug-In . SVG Version: 6.00 Build 0)  -->
<svg version="1.1" id="Capa_1" xmlns="http://www.w3.org/2000/svg" xmlns:xlink="http://www.w3.org/1999/xlink" x="0px" y="0px"
	 viewBox="0 0 512 512" style="enable-background:new 0 0 512 512;" xml:space="preserve">
<style type="text/css">
	.st0{font-family:'ProximaNova-Bold';}
	.st1{font-size:326.2707px;}
</style>
<path d="M492.8,469.1L368.4,339.8l2.3-2.8c30.7-36.5,47.6-82.7,47.6-130.3C418.3,94.9,327.3,4,215.6,4C103.8,4,12.8,94.9,12.8,206.7
	c0,111.8,90.9,202.7,202.7,202.7c41.8,0,82-12.7,116.1-36.7l2.8-2L459.7,501c4.4,4.5,10.3,7,16.5,7c6,0,11.6-2.3,15.9-6.4
	C501.2,492.8,501.5,478.2,492.8,469.1z M215.6,363.5c-86.5,0-156.8-70.3-156.8-156.8S129.1,49.9,215.6,49.9
	c86.5,0,156.8,70.3,156.8,156.8S302,363.5,215.6,363.5z"/>
<text transform="matrix(1 0 0 1 132.3291 323.9463)" class="st0 st1">+</text>
</svg>
