<?xml version="1.0" encoding="utf-8"?>
<!-- Generator: Adobe Illustrator 22.0.0, SVG Export Plug-In . SVG Version: 6.00 Build 0)  -->
<svg version="1.1" id="Слой_1" xmlns="http://www.w3.org/2000/svg" xmlns:xlink="http://www.w3.org/1999/xlink" x="0px" y="0px"
	 viewBox="0 0 512 512" style="enable-background:new 0 0 512 512;" xml:space="preserve">
<style type="text/css">
	.st0{fill:#E21A1A;}
</style>
<path class="st0" d="M511.8,142.3C508,62.7,442.4,0.1,362.7,0H149.3C66.9,0.1,0.1,66.9,0,149.3v149.3h512V149.3
	C512,147,511.9,144.6,511.8,142.3z M341.3,186.7c0,3.4-1.6,6.5-4.3,8.5l-74.7,56c-3.8,2.8-9,2.8-12.8,0l-74.7-56
	c-2.7-2-4.3-5.2-4.3-8.5v-86.3c0-5.9,4.9-10.7,10.8-10.6c0.8,0,1.6,0.1,2.4,0.3c27.8,6.1,53.7-10.8,65.5-20.2
	c3.9-3.1,9.4-3.1,13.3,0c11.8,9.4,37.7,26.3,65.5,20.2c5.8-1.4,11.5,2.2,12.9,8c0.2,0.8,0.3,1.6,0.3,2.4V186.7z"/>
<path class="st0" d="M0,373.3c0,5,1.7,9.8,4.9,13.7C59,451.9,152.9,490.7,256,490.7S453,451.9,507.1,387c3.2-3.8,4.9-8.7,4.9-13.7
	V320H0V373.3z"/>
</svg>
